module gitlab.com/ap4y/cloud

require (
	github.com/dgrijalva/jwt-go v3.2.0+incompatible
	github.com/go-chi/chi v4.0.1+incompatible
	github.com/nfnt/resize v0.0.0-20180221191011-83c6a9932646
	github.com/rwcarlsen/goexif v0.0.0-20190401172101-9e8deecbddbd
	github.com/stretchr/testify v1.3.0
	golang.org/x/crypto v0.0.0-20190701094942-4def268fd1a4
)

go 1.13
